%YAML 1.1
%TAG !u! tag:unity3d.com,2011:
--- !u!114 &11400000
MonoBehaviour:
  m_ObjectHideFlags: 0
  m_CorrespondingSourceObject: {fileID: 0}
  m_PrefabInstance: {fileID: 0}
  m_PrefabAsset: {fileID: 0}
  m_GameObject: {fileID: 0}
  m_Enabled: 1
  m_EditorHideFlags: 0
  m_Script: {fileID: 11500000, guid: f4ec29d0992609b489690fe2a484805d, type: 3}
  m_Name: EventsData
  m_EditorClassIdentifier: 
  _eventDatas:
  - _type: 0
    _name: session_length
    _properties:
    - duration
  - _type: 1
    _name: point_scored
    _properties:
    - score
    - type
